…
------------------------------------------------------------------------

### 3. ROE와 유보율 (기업의 미래성장성)

> 성장률 = ROE \* 유보율  
> – 기업이 지속적으로 유지할 수 있는 성장률: 유보율 × 자기자본이익률

``` r
enter$성장률 <- enter$ROE *enter$유보율
top_00 <- enter[order(-enter$성장률), ][-1, ]
print(top_00)
```

    ## # A tibble: 32 × 11
    ##    종목명      현재가 전일비 등락률 시가…¹ 자산총계 부채…² 외국인…³   ROE 유보율
    ##    <chr>        <dbl>  <dbl> <chr>   <dbl>    <dbl>  <dbl>    <dbl> <dbl>  <dbl>
    ##  1 카카오       56400    100 -0.18% 250384   229635  94316    25.9  13.5  25032 
    ##  2 에스엠 *    102000   1400 -1.35%  24308    14630   5769    14.0  12.2   5655.
    ##  3 JYP Ent. *  131200   2900 +2.26%  46573     4111   1066    46.3  24.7   1641.
    ##  4 와이지엔터…  83700   1800 +2.20%  15624     7129   1866    20.3   8.56  4063.
    ##  5 스튜디오드…  63800    100 +0.16%  19177    10907   4299     8.54  7.52  4564.
    ##  6 하이브      280500  12500 +4.66% 116826    48704  19418    18.3   1.87 13946.
    ##  7 삼화네트웍…   2725     35 +1.30%   1176      833    254     2.75 27.2    603.
    ##  8 디어유 *     41050   2950 +7.74%   9737     1525    113     2.58 12.4   1007.
    ##  9 큐브엔터 *   21400    150 +0.71%   2954     1059    666     6.69 16.5    482.
    ## 10 TJ미디어 *    7800     30 +0.39%   1087     1348    495     2.71  5.41  1130.
    ## # … with 22 more rows, 1 more variable: 성장률 <dbl>, and abbreviated variable
    ## #   names ¹​시가총액, ²​부채총계, ³​외국인비율
…
